%YAML 1.1
%TAG !u! tag:unity3d.com,2011:
--- !u!114 &11400000
MonoBehaviour:
  m_ObjectHideFlags: 0
  m_PrefabParentObject: {fileID: 0}
  m_PrefabInternal: {fileID: 0}
  m_GameObject: {fileID: 0}
  m_Enabled: 1
  m_EditorHideFlags: 0
  m_Script: {fileID: 11500000, guid: 7201eea7047fc884a9ef2a3554b71c0a, type: 3}
  m_Name: Beta
  m_EditorClassIdentifier: 
  Type: 2
  Material: {fileID: 2100000, guid: 779634d41be292d409bdd489602e3b4d, type: 2}
  InstantiationSlots: 02000000
  ConditionsArray:
  - RotationDirection: 1
    RotationNumber: 3
    HasGemCondition: 1
    GemInfo: {fileID: 11400000, guid: 9344babdfdc74c84fa460e7d7b62d1ff, type: 2}
    ConditionSlots: 0100000004000000
  - RotationDirection: 2
    RotationNumber: 1
    HasGemCondition: 1
    GemInfo: {fileID: 11400000, guid: 9344babdfdc74c84fa460e7d7b62d1ff, type: 2}
    ConditionSlots: 0100000004000000
